index
…
Tidying a recipe

you can use number or id to select a step

rec_prepped |>
  tidy(number = 4) # id = "nzv_RUieL"

# A tibble: 32 × 2
   terms              id       
   <chr>              <chr>    
 1 BsmtFin_SF_2       nzv_RUieL
 2 Kitchen_AbvGr      nzv_RUieL
 3 Open_Porch_SF      nzv_RUieL
 4 Enclosed_Porch     nzv_RUieL
 5 Three_season_porch nzv_RUieL
 6 Screen_Porch       nzv_RUieL
 7 Pool_Area          nzv_RUieL
 8 Misc_Val           nzv_RUieL
 9 Street_other       nzv_RUieL
10 Lot_Shape_other    nzv_RUieL
# ℹ 22 more rows

Tidying a recipe

you can use number or id to select a step

rec_prepped |>
  tidy(number = 3) # id = "dummy_pdHMv"

# A tibble: 98 × 3
   terms       columns                              id         
   <chr>       <chr>                                <chr>      
 1 MS_SubClass One_and_Half_Story_Finished_All_Ages dummy_pdHMv
 2 MS_SubClass Two_Story_1946_and_Newer             dummy_pdHMv
 3 MS_SubClass One_Story_PUD_1946_and_Newer         dummy_pdHMv
 4 MS_SubClass other                                dummy_pdHMv
 5 MS_Zoning   Residential_Medium_Density           dummy_pdHMv
 6 MS_Zoning   other                                dummy_pdHMv
 7 Street      other                                dummy_pdHMv
 8 Alley       other                                dummy_pdHMv
 9 Lot_Shape   Slightly_Irregular                   dummy_pdHMv
10 Lot_Shape   other                                dummy_pdHMv
# ℹ 88 more rows
…
